…
# frequency of each words in each movie
movie_words <- unnest_tokens(movie_words,word, storyline) %>% 
  count( Title, word, sort = TRUE) %>% 
  ungroup()

# count total words in each movie
total_words <- movie_words %>% group_by(Title) %>% summarize(total = sum(n))

(movie_words <- left_join(movie_words, total_words))
```

    ## Joining, by = "Title"

    ## # A tibble: 448 × 4
    ##                             Title  word     n total
    ##                             <chr> <chr> <int> <int>
    ## 1         The Fate of the Furious   the    13   124
    ## 2                           Logan   the    11   206
    ## 3                           Logan    to    11   206
    ## 4                           Logan     a     8   206
    ## 5         The Fate of the Furious   and     7   124
    ## 6  Guardians of the Galaxy Vol. 2   the     6    63
    ## 7         The Fate of the Furious    of     6   124
    ## 8               The Good Dinosaur   the     6    68
    ## 9                  Thor: Ragnarok   the     6    49
    ## 10                          Logan   and     5   206
    ## # ... with 438 more rows
…
The above figures exhibit similar distributions for all the movies. From the pattern of distribution,we can see that only a few of words that occur frequently. From here TF-IDF will be used to find the important words of each movie by using bind\_tf\_idf function in tidytext package.

``` r
# calculate TF-IDF 
(movie_words <- movie_words %>%
  bind_tf_idf(word, Title, n)) %>% 
  arrange(desc(tf_idf))
```

    ## # A tibble: 448 × 7
    ##                             Title      word     n total         tf
    ##                             <chr>     <chr> <int> <int>      <dbl>
    ## 1            Beauty and the Beast      only     3    58 0.05172414
    ## 2        Star Wars: The Last Jedi       her     2    34 0.05882353
    ## 3            Beauty and the Beast        be     2    58 0.03448276
    ## 4            Beauty and the Beast      form     2    58 0.03448276
    ## 5  Guardians of the Galaxy Vol. 2 guardians     2    63 0.03174603
    ## 6               The Good Dinosaur      arlo     2    68 0.02941176
    ## 7               The Good Dinosaur dinosaurs     2    68 0.02941176
    ## 8        Star Wars: The Last Jedi      2015     1    34 0.02941176
    ## 9        Star Wars: The Last Jedi   awakens     1    34 0.02941176
    ## 10       Star Wars: The Last Jedi   chapter     1    34 0.02941176
    ## # ... with 438 more rows, and 2 more variables: idf <dbl>, tf_idf <dbl>
…
